\relax 
\providecommand\hyper@newdestlabel[2]{}
\providecommand\HyperFirstAtBeginDocument{\AtBeginDocument}
\HyperFirstAtBeginDocument{\ifx\hyper@anchor\@undefined
\global\let\oldcontentsline\contentsline
\gdef\contentsline#1#2#3#4{\oldcontentsline{#1}{#2}{#3}}
\global\let\oldnewlabel\newlabel
\gdef\newlabel#1#2{\newlabelxx{#1}#2}
\gdef\newlabelxx#1#2#3#4#5#6{\oldnewlabel{#1}{{#2}{#3}}}
\AtEndDocument{\ifx\hyper@anchor\@undefined
\let\contentsline\oldcontentsline
\let\newlabel\oldnewlabel
\fi}
\fi}
\global\let\hyper@last\relax 
\gdef\HyperFirstAtBeginDocument#1{#1}
\providecommand\HyField@AuxAddToFields[1]{}
\providecommand\HyField@AuxAddToCoFields[2]{}
\@writefile{toc}{\contentsline {section}{\numberline {1}Introduction}{2}{section.1}}
\@writefile{toc}{\contentsline {subsection}{\numberline {1.1}Project Overview}{2}{subsection.1.1}}
\@writefile{toc}{\contentsline {subsection}{\numberline {1.2}Project Deliverables}{2}{subsection.1.2}}
\@writefile{toc}{\contentsline {section}{\numberline {2} Project Organization}{2}{section.2}}
\@writefile{toc}{\contentsline {subsection}{\numberline {2.1} Software Process Model}{2}{subsection.2.1}}
\@writefile{toc}{\contentsline {subsection}{\numberline {2.2}Roles and responsibilities}{2}{subsection.2.2}}
\@writefile{toc}{\contentsline {subsection}{\numberline {2.3} Tools and techniques}{3}{subsection.2.3}}
\@writefile{toc}{\contentsline {subsubsection}{\numberline {2.3.1}Hardware Requirements}{3}{subsubsection.2.3.1}}
\@writefile{toc}{\contentsline {subsubsection}{\numberline {2.3.2}Software Requirements}{3}{subsubsection.2.3.2}}
\@writefile{toc}{\contentsline {section}{\numberline {3}Project Management Plan}{3}{section.3}}
\@writefile{toc}{\contentsline {subsection}{\numberline {3.1} Tasks}{3}{subsection.3.1}}
\@writefile{toc}{\contentsline {subsubsection}{\numberline {3.1.1}Task 1: SRS (Software Requirement Specification) - T1}{3}{subsubsection.3.1.1}}
\@writefile{toc}{\contentsline {subparagraph}{Description}{3}{section*.2}}
\@writefile{toc}{\contentsline {subparagraph}{Deliverables and Milestones}{3}{section*.3}}
\@writefile{toc}{\contentsline {subparagraph}{Resources Needed}{3}{section*.4}}
\@writefile{toc}{\contentsline {subparagraph}{Dependencies and constraints}{3}{section*.5}}
\@writefile{toc}{\contentsline {subparagraph}{Risks and contingencies}{3}{section*.6}}
\@writefile{toc}{\contentsline {subsubsection}{\numberline {3.1.2}Task 2 : Software Design Document - T2}{3}{subsubsection.3.1.2}}
\@writefile{toc}{\contentsline {subparagraph}{Description}{3}{section*.7}}
\@writefile{toc}{\contentsline {subparagraph}{Deliverables and Milestones}{3}{section*.8}}
\@writefile{toc}{\contentsline {subparagraph}{Resources Needed}{3}{section*.9}}
\@writefile{toc}{\contentsline {subparagraph}{Dependencies and constraints}{3}{section*.10}}
\@writefile{toc}{\contentsline {subparagraph}{Risks and contingencies}{3}{section*.11}}
\@writefile{toc}{\contentsline {subsubsection}{\numberline {3.1.3}Task 3 : Code and Test - T3}{3}{subsubsection.3.1.3}}
\@writefile{toc}{\contentsline {subparagraph}{Description}{3}{section*.12}}
\@writefile{toc}{\contentsline {subparagraph}{Deliverables and Milestones}{4}{section*.13}}
\@writefile{toc}{\contentsline {subparagraph}{Resources Needed}{4}{section*.14}}
\@writefile{toc}{\contentsline {subparagraph}{Dependencies and constraints}{4}{section*.15}}
\@writefile{toc}{\contentsline {subparagraph}{Risks and contingencies}{4}{section*.16}}
\@writefile{toc}{\contentsline {subsection}{\numberline {3.2} Timetable}{4}{subsection.3.2}}
\newlabel{RF1}{5}
\newlabel{fig:Gantt Chart}{{3.2}{5}{Timetable}{subsection.3.2}{}}
