\select@language {english}
\contentsline {section}{\numberline {1}Introduction}{2}{section.1}
\contentsline {subsection}{\numberline {1.1}System Overview}{2}{subsection.1.1}
\contentsline {subsection}{\numberline {1.2}Test Approach}{2}{subsection.1.2}
\contentsline {subsubsection}{\numberline {1.2.1}Unit Testing}{2}{subsubsection.1.2.1}
\contentsline {subsubsection}{\numberline {1.2.2}System Testing}{2}{subsubsection.1.2.2}
\contentsline {subsubsection}{\numberline {1.2.3}Performance Testing}{2}{subsubsection.1.2.3}
\contentsline {section}{\numberline {2}Test Plan}{2}{section.2}
\contentsline {subsection}{\numberline {2.1}Features to be tested}{2}{subsection.2.1}
\contentsline {subsection}{\numberline {2.2}Testing tools and environment}{3}{subsection.2.2}
\contentsline {subsubsection}{\numberline {2.2.1}Time Spent on Testing}{3}{subsubsection.2.2.1}
\contentsline {subsubsection}{\numberline {2.2.2}Space,Equipment Required}{3}{subsubsection.2.2.2}
\contentsline {subsubsection}{\numberline {2.2.3}Hardware Required}{3}{subsubsection.2.2.3}
\contentsline {subsubsection}{\numberline {2.2.4}Software Required}{3}{subsubsection.2.2.4}
\contentsline {subsubsection}{\numberline {2.2.5}Special Test Tools Required}{3}{subsubsection.2.2.5}
\contentsline {section}{\numberline {3}Test Cases}{4}{section.3}
