\BOOKMARK [0][-]{Item.8}{Abstract}{}% 1
\BOOKMARK [0][-]{chapter*.3}{List of Figures}{}% 2
\BOOKMARK [0][-]{chapter*.4}{List of Tables}{}% 3
\BOOKMARK [0][-]{chapter*.5}{Nomenclature}{}% 4
\BOOKMARK [0][-]{chapter.1}{Introduction}{}% 5
\BOOKMARK [1][-]{section.1.1}{Problem Definition}{chapter.1}% 6
\BOOKMARK [1][-]{section.1.2}{Motivation of the thesis}{chapter.1}% 7
\BOOKMARK [1][-]{section.1.3}{Scope of the thesis}{chapter.1}% 8
\BOOKMARK [1][-]{section.1.4}{Salient contribution}{chapter.1}% 9
\BOOKMARK [1][-]{section.1.5}{Organization of the Thesis}{chapter.1}% 10
\BOOKMARK [0][-]{chapter.2}{Literature Survey}{}% 11
\BOOKMARK [1][-]{section.2.1}{e.g Preprocessing}{chapter.2}% 12
\BOOKMARK [1][-]{section.2.2}{e.g Segmentation }{chapter.2}% 13
\BOOKMARK [1][-]{section.2.3}{e. g Feature Extraction}{chapter.2}% 14
\BOOKMARK [0][-]{chapter.3}{Software Project Management Plan }{}% 15
\BOOKMARK [1][-]{section.3.1}{Introduction}{chapter.3}% 16
\BOOKMARK [2][-]{subsection.3.1.1}{Project Overview}{section.3.1}% 17
\BOOKMARK [2][-]{subsection.3.1.2}{Project Deliverables}{section.3.1}% 18
\BOOKMARK [1][-]{section.3.2}{Project Organization}{chapter.3}% 19
\BOOKMARK [2][-]{subsection.3.2.1}{Software Process Model}{section.3.2}% 20
\BOOKMARK [2][-]{subsection.3.2.2}{Roles and Responsibilities}{section.3.2}% 21
\BOOKMARK [2][-]{subsection.3.2.3}{Tools and Techniques}{section.3.2}% 22
\BOOKMARK [1][-]{section.3.3}{Project Management Plan}{chapter.3}% 23
\BOOKMARK [2][-]{subsection.3.3.1}{Tasks}{section.3.3}% 24
\BOOKMARK [2][-]{subsection.3.3.2}{Assignment}{section.3.3}% 25
\BOOKMARK [2][-]{subsection.3.3.3}{Time table}{section.3.3}% 26
\BOOKMARK [0][-]{chapter.4}{Software Requirements Specification}{}% 27
\BOOKMARK [1][-]{section.4.1}{Introduction}{chapter.4}% 28
\BOOKMARK [2][-]{subsection.4.1.1}{Product Overview}{section.4.1}% 29
\BOOKMARK [1][-]{section.4.2}{Specific Requirements}{chapter.4}% 30
\BOOKMARK [2][-]{subsection.4.2.1}{External Interface Requirements}{section.4.2}% 31
\BOOKMARK [2][-]{subsection.4.2.2}{Software Product Features}{section.4.2}% 32
\BOOKMARK [2][-]{subsection.4.2.3}{Software System Attributes}{section.4.2}% 33
\BOOKMARK [2][-]{subsection.4.2.4}{Database Requirements}{section.4.2}% 34
\BOOKMARK [0][-]{chapter.5}{Software Design Description}{}% 35
\BOOKMARK [1][-]{section.5.1}{Introduction}{chapter.5}% 36
\BOOKMARK [2][-]{subsection.5.1.1}{Design Overview}{section.5.1}% 37
\BOOKMARK [2][-]{subsection.5.1.2}{Requirement Traceability Matrix}{section.5.1}% 38
\BOOKMARK [1][-]{section.5.2}{System Architectural Design}{chapter.5}% 39
\BOOKMARK [2][-]{subsection.5.2.1}{Chosen System Architecture}{section.5.2}% 40
\BOOKMARK [2][-]{subsection.5.2.2}{Discussion of Alternative Designs}{section.5.2}% 41
\BOOKMARK [2][-]{subsection.5.2.3}{System Interface Description}{section.5.2}% 42
\BOOKMARK [1][-]{section.5.3}{Detailed Description of Components}{chapter.5}% 43
\BOOKMARK [1][-]{section.5.4}{User Interface Design}{chapter.5}% 44
\BOOKMARK [2][-]{subsection.5.4.1}{Description of User Interface}{section.5.4}% 45
\BOOKMARK [0][-]{chapter.6}{Software Test Document}{}% 46
\BOOKMARK [1][-]{section.6.1}{Introduction}{chapter.6}% 47
\BOOKMARK [2][-]{subsection.6.1.1}{System Overview}{section.6.1}% 48
\BOOKMARK [2][-]{subsection.6.1.2}{Test Approach}{section.6.1}% 49
\BOOKMARK [1][-]{section.6.2}{Introduction}{chapter.6}% 50
\BOOKMARK [2][-]{subsection.6.2.1}{Features to be Tested}{section.6.2}% 51
\BOOKMARK [2][-]{subsection.6.2.2}{Features not to be Tested}{section.6.2}% 52
\BOOKMARK [2][-]{subsection.6.2.3}{Testing Tools and Environment}{section.6.2}% 53
\BOOKMARK [1][-]{section.6.3}{Test Cases}{chapter.6}% 54
\BOOKMARK [0][-]{chapter.7}{Conclusion and Scope for future work}{}% 55
\BOOKMARK [1][-]{section.7.1}{Conclusions}{chapter.7}% 56
\BOOKMARK [1][-]{section.7.2}{Scope for future work}{chapter.7}% 57
\BOOKMARK [0][-]{section.7.2}{References}{}% 58
\BOOKMARK [0][-]{chapter.8}{Author's Publications}{}% 59
